{
  "__inputs": [
    {
      "name": "DS_INFLUXDB",
      "label": "InfluxDB",
      "description": "",
      "type": "datasource",
      "pluginId": "influxdb",
      "pluginName": "InfluxDB"
    }
  ],
  "__requires": [
    {
      "type": "grafana",
      "id": "grafana",
      "name": "Grafana",
      "version": "5.4.3"
    },
    {
      "type": "panel",
      "id": "graph",
      "name": "Graph",
      "version": "5.0.0"
    },
    {
      "type": "datasource",
      "id": "influxdb",
      "name": "InfluxDB",
      "version": "5.0.0"
    }
  ],
  "annotations": {
    "list": [
      {
        "builtIn": 1,
        "datasource": "-- Grafana --",
        "enable": true,
        "hide": true,
        "iconColor": "rgba(0, 211, 255, 1)",
        "name": "Annotations & Alerts",
        "type": "dashboard"
      }
    ]
  },
  "editable": true,
  "gnetId": null,
  "graphTooltip": 0,
  "id": null,
  "iteration": 1556171753421,
  "links": [],
  "panels": [
    {
      "aliasColors": {
        "incoming": "#CCA300",
        "outgoing": "#890F02",
        "pending": "#0A437C"
      },
      "bars": false,
      "dashLength": 10,
      "dashes": false,
      "datasource": "${DS_INFLUXDB}",
      "fill": 1,
      "gridPos": {
        "h": 7,
        "w": 24,
        "x": 0,
        "y": 0
      },
      "id": 1,
      "legend": {
        "avg": false,
        "current": false,
        "max": false,
        "min": false,
        "show": true,
        "total": false,
        "values": false
      },
      "lines": true,
      "linewidth": 1,
      "links": [],
      "nullPointMode": "connected",
      "percentage": false,
      "pointradius": 5,
      "points": false,
      "renderer": "flot",
      "seriesOverrides": [],
      "spaceLength": 10,
      "stack": false,
      "steppedLine": false,
      "targets": [
        {
          "alias": "Pending",
          "dsType": "influxdb",
          "groupBy": [
            {
              "params": [
                "$__interval"
              ],
              "type": "time"
            }
          ],
          "hide": false,
          "measurement": "HOST_pendingFiles",
          "orderByTime": "ASC",
          "policy": "default",
          "query": "SELECT mean(\"m1_rate\") FROM \"HOST_pendingFiles\" WHERE (\"AppId\" =~ /^$CMQInstance$/) AND $timeFilter GROUP BY time($__interval)",
          "rawQuery": true,
          "refId": "A",
          "resultFormat": "time_series",
          "select": [
            [
              {
                "params": [
                  "m1_rate"
                ],
                "type": "field"
              },
              {
                "params": [],
                "type": "mean"
              }
            ]
          ],
          "tags": [
            {
              "key": "AppId",
              "operator": "=~",
              "value": "/^$CMQInstance$/"
            }
          ],
          "target": "alias(summarize(sumSeries(*.clari5.platform.applayer.health.Clari5Health.incoming.HOST.*.m1_rate), '1m', 'sum', true), 'incoming')"
        },
        {
          "alias": "incomings",
          "dsType": "influxdb",
          "groupBy": [
            {
              "params": [
                "$__interval"
              ],
              "type": "time"
            },
            {
              "params": [
                "null"
              ],
              "type": "fill"
            }
          ],
          "hide": false,
          "measurement": "/.*incoming.HOST.*/",
          "orderByTime": "ASC",
          "policy": "default",
          "query": "SELECT mean(\"m1_rate\") FROM \"HOST_incoming\" WHERE (\"AppId\" =~ /^$CMQInstance$/) AND $timeFilter GROUP BY time($__interval)",
          "rawQuery": true,
          "refId": "B",
          "resultFormat": "time_series",
          "select": [
            [
              {
                "params": [
                  "one-minute"
                ],
                "type": "field"
              },
              {
                "params": [],
                "type": "mean"
              }
            ]
          ],
          "tags": [],
          "target": "alias(summarize(sumSeries(*.clari5.platform.applayer.health.Clari5Health.sent.HOST.*.m1_rate), '1m', 'sum', true), 'sent')",
          "textEditor": true
        },
        {
          "alias": "sent",
          "dsType": "influxdb",
          "groupBy": [
            {
              "params": [
                "$__interval"
              ],
              "type": "time"
            },
            {
              "params": [
                "null"
              ],
              "type": "fill"
            }
          ],
          "hide": false,
          "measurement": "/.*sent.HOST.*/",
          "orderByTime": "ASC",
          "policy": "default",
          "query": "SELECT mean(\"m1_rate\") FROM \"HOST_sent\" WHERE (\"AppId\" =~ /^$CMQInstance$/) AND $timeFilter GROUP BY time($__interval)",
          "rawQuery": true,
          "refId": "C",
          "resultFormat": "time_series",
          "select": [
            [
              {
                "params": [
                  "one-minute"
                ],
                "type": "field"
              },
              {
                "params": [],
                "type": "mean"
              }
            ]
          ],
          "tags": [],
          "target": "alias(summarize(sumSeries(*.clari5.platform.applayer.health.Clari5Health.pending.HOST.*.m1_rate), '1m', 'sum', true), 'pending')"
        },
        {
          "alias": "completed",
          "dsType": "influxdb",
          "groupBy": [
            {
              "params": [
                "$__interval"
              ],
              "type": "time"
            },
            {
              "params": [
                "null"
              ],
              "type": "fill"
            }
          ],
          "hide": false,
          "measurement": "/.*completed.HOST.*/",
          "orderByTime": "ASC",
          "policy": "default",
          "query": "SELECT mean(\"m1_rate\") FROM \"HOST_completed\" WHERE (\"AppId\" =~ /^$CMQInstance$/) AND $timeFilter GROUP BY time($__interval)",
          "rawQuery": true,
          "refId": "D",
          "resultFormat": "time_series",
          "select": [
            [
              {
                "params": [
                  "one-minute"
                ],
                "type": "field"
              },
              {
                "params": [],
                "type": "mean"
              }
            ]
          ],
          "tags": [],
          "target": "alias(summarize(sumSeries(*.clari5.platform.applayer.health.Clari5Health.completed.HOST.*.m1_rate), '1m', 'sum', true), 'completed')",
          "textEditor": true
        },
        {
          "alias": "error",
          "dsType": "influxdb",
          "groupBy": [
            {
              "params": [
                "$__interval"
              ],
              "type": "time"
            },
            {
              "params": [
                "0"
              ],
              "type": "fill"
            }
          ],
          "hide": false,
          "measurement": "HOST_error",
          "orderByTime": "ASC",
          "policy": "default",
          "query": "SELECT mean(\"m1_rate\") FROM \"HOST_error\" WHERE (\"AppId\" =~ /^$CMQInstance$/) AND $timeFilter GROUP BY time($__interval)",
          "rawQuery": false,
          "refId": "E",
          "resultFormat": "time_series",
          "select": [
            [
              {
                "params": [
                  "m1_rate"
                ],
                "type": "field"
              },
              {
                "params": [],
                "type": "mean"
              }
            ]
          ],
          "tags": [
            {
              "key": "AppId",
              "operator": "=~",
              "value": "/^$CMQInstance$/"
            }
          ],
          "target": "alias(summarize(sumSeries(*.clari5.platform.applayer.health.Clari5Health.error.HOST.*.m1_rate), '1m', 'sum', true), 'error')",
          "textEditor": true
        },
        {
          "alias": "retry",
          "dsType": "influxdb",
          "groupBy": [
            {
              "params": [
                "$__interval"
              ],
              "type": "time"
            },
            {
              "params": [
                "0"
              ],
              "type": "fill"
            }
          ],
          "hide": false,
          "measurement": "HOST_retry",
          "orderByTime": "ASC",
          "policy": "default",
          "query": "SELECT mean(\"m1_rate\") FROM \"HOST_retry\" WHERE (\"AppId\" =~ /^$CMQInstance$/) AND $timeFilter GROUP BY time($__interval)",
          "rawQuery": false,
          "refId": "F",
          "resultFormat": "time_series",
          "select": [
            [
              {
                "params": [
                  "one-minute"
                ],
                "type": "field"
              },
              {
                "params": [],
                "type": "mean"
              }
            ]
          ],
          "tags": [],
          "target": "alias(summarize(sumSeries(*.clari5.platform.applayer.health.Clari5Health.retry.HOST.*.m1_rate), '1m', 'sum', true), 'retry')",
          "textEditor": true
        }
      ],
      "thresholds": [],
      "timeFrom": null,
      "timeRegions": [],
      "timeShift": null,
      "title": "HOST",
      "tooltip": {
        "shared": true,
        "sort": 0,
        "value_type": "individual"
      },
      "type": "graph",
      "xaxis": {
        "buckets": null,
        "mode": "time",
        "name": null,
        "show": true,
        "values": []
      },
      "yaxes": [
        {
          "format": "short",
          "label": null,
          "logBase": 1,
          "max": null,
          "min": null,
          "show": true
        },
        {
          "format": "short",
          "label": null,
          "logBase": 1,
          "max": null,
          "min": null,
          "show": true
        }
      ],
      "yaxis": {
        "align": false,
        "alignLevel": null
      }
    },
    {
      "aliasColors": {
        "incoming": "#CCA300",
        "outgoing": "#890F02",
        "pending": "#0A437C"
      },
      "bars": false,
      "dashLength": 10,
      "dashes": false,
      "datasource": "${DS_INFLUXDB}",
      "fill": 1,
      "gridPos": {
        "h": 7,
        "w": 24,
        "x": 0,
        "y": 7
      },
      "hideTimeOverride": false,
      "id": 2,
      "legend": {
        "alignAsTable": false,
        "avg": false,
        "current": false,
        "hideEmpty": false,
        "hideZero": false,
        "max": false,
        "min": false,
        "rightSide": false,
        "show": true,
        "total": false,
        "values": false
      },
      "lines": true,
      "linewidth": 1,
      "links": [],
      "nullPointMode": "connected",
      "percentage": false,
      "pointradius": 5,
      "points": false,
      "renderer": "flot",
      "seriesOverrides": [],
      "spaceLength": 10,
      "stack": false,
      "steppedLine": false,
      "targets": [
        {
          "alias": "pendings",
          "dsType": "influxdb",
          "groupBy": [
            {
              "params": [
                "$__interval"
              ],
              "type": "time"
            },
            {
              "params": [
                "null"
              ],
              "type": "fill"
            }
          ],
          "hide": false,
          "measurement": "/.*pending.NOESIS.*/",
          "orderByTime": "ASC",
          "policy": "default",
          "query": "SELECT mean(\"m1_rate\") FROM \"NOESIS_pendingFiles\" WHERE (\"AppId\" =~ /^$CMQInstance$/) AND $timeFilter GROUP BY time($__interval)",
          "rawQuery": true,
          "refId": "A",
          "resultFormat": "time_series",
          "select": [
            [
              {
                "params": [
                  "one-minute"
                ],
                "type": "field"
              },
              {
                "params": [],
                "type": "mean"
              }
            ]
          ],
          "tags": [],
          "target": "alias(summarize(sumSeries(*.clari5.platform.applayer.health.Clari5Health.incoming.NOESIS.*.m1_rate), '1m', 'sum', true), 'incoming')",
          "textEditor": true
        },
        {
          "alias": "sent",
          "dsType": "influxdb",
          "groupBy": [
            {
              "params": [
                "$__interval"
              ],
              "type": "time"
            },
            {
              "params": [
                "null"
              ],
              "type": "fill"
            }
          ],
          "measurement": "/.*sent.NOESIS.*/",
          "orderByTime": "ASC",
          "policy": "default",
          "query": "SELECT mean(\"count\") FROM /.*sent.NOESIS.*/ WHERE $timeFilter GROUP BY time($__interval) fill(null)",
          "rawQuery": false,
          "refId": "B",
          "resultFormat": "time_series",
          "select": [
            [
              {
                "params": [
                  "one-minute"
                ],
                "type": "field"
              },
              {
                "params": [],
                "type": "mean"
              }
            ]
          ],
          "tags": [],
          "target": "alias(summarize(sumSeries(*.clari5.platform.applayer.health.Clari5Health.sent.NOESIS.*.m1_rate), '1m', 'sum', true), 'sent')",
          "textEditor": true
        },
        {
          "alias": "completed",
          "dsType": "influxdb",
          "groupBy": [
            {
              "params": [
                "$__interval"
              ],
              "type": "time"
            },
            {
              "params": [
                "null"
              ],
              "type": "fill"
            }
          ],
          "measurement": "/.*completed.NOESIS.*/",
          "orderByTime": "ASC",
          "policy": "default",
          "query": "SELECT mean(\"m1_rate\") FROM \"NOESIS_completed\" WHERE (\"AppId\" =~ /^$CMQInstance$/) AND $timeFilter GROUP BY time($__interval)",
          "rawQuery": true,
          "refId": "C",
          "resultFormat": "time_series",
          "select": [
            [
              {
                "params": [
                  "one-minute"
                ],
                "type": "field"
              },
              {
                "params": [],
                "type": "mean"
              }
            ]
          ],
          "tags": [],
          "target": "alias(summarize(sumSeries(*.clari5.platform.applayer.health.Clari5Health.pending.NOESIS.*.m1_rate), '1m', 'sum', true), 'pending')",
          "textEditor": true
        },
        {
          "alias": "incomings",
          "dsType": "influxdb",
          "groupBy": [
            {
              "params": [
                "$__interval"
              ],
              "type": "time"
            },
            {
              "params": [
                "null"
              ],
              "type": "fill"
            }
          ],
          "measurement": "/.*incoming.NOESIS.*/",
          "orderByTime": "ASC",
          "policy": "default",
          "query": "SELECT mean(\"m1_rate\") FROM \"NOESIS_incoming\" WHERE (\"AppId\" =~ /^$CMQInstance$/) AND $timeFilter GROUP BY time($__interval)",
          "rawQuery": true,
          "refId": "D",
          "resultFormat": "time_series",
          "select": [
            [
              {
                "params": [
                  "one-minute"
                ],
                "type": "field"
              },
              {
                "params": [],
                "type": "mean"
              }
            ]
          ],
          "tags": [],
          "target": "alias(summarize(sumSeries(*.clari5.platform.applayer.health.Clari5Health.completed.NOESIS.*.m1_rate), '1m', 'sum', true), 'completed')",
          "textEditor": true
        },
        {
          "alias": "in progress",
          "dsType": "influxdb",
          "groupBy": [
            {
              "params": [
                "$__interval"
              ],
              "type": "time"
            },
            {
              "params": [
                "null"
              ],
              "type": "fill"
            }
          ],
          "measurement": "/.*error.NOESIS.*/",
          "orderByTime": "ASC",
          "policy": "default",
          "query": "SELECT mean(\"m1_rate\") FROM \"NOESIS_sent\" WHERE (\"AppId\" =~ /^$CMQInstance$/) AND $timeFilter GROUP BY time($__interval)",
          "rawQuery": true,
          "refId": "E",
          "resultFormat": "time_series",
          "select": [
            [
              {
                "params": [
                  "one-minute"
                ],
                "type": "field"
              },
              {
                "params": [],
                "type": "mean"
              }
            ]
          ],
          "tags": [],
          "target": "alias(summarize(sumSeries(*.clari5.platform.applayer.health.Clari5Health.error.NOESIS.*.m1_rate), '1m', 'sum', true), 'error')",
          "textEditor": true
        },
        {
          "alias": "retry",
          "dsType": "influxdb",
          "groupBy": [
            {
              "params": [
                "$__interval"
              ],
              "type": "time"
            },
            {
              "params": [
                "null"
              ],
              "type": "fill"
            }
          ],
          "measurement": "/.*retry.NOESIS.*/",
          "orderByTime": "ASC",
          "policy": "default",
          "query": "SELECT mean(\"m1_rate\") FROM \"NOESIS_retry\" WHERE (\"AppId\" =~ /^$CMQInstance$/) AND $timeFilter GROUP BY time($__interval)",
          "rawQuery": true,
          "refId": "F",
          "resultFormat": "time_series",
          "select": [
            [
              {
                "params": [
                  "one-minute"
                ],
                "type": "field"
              },
              {
                "params": [],
                "type": "mean"
              }
            ]
          ],
          "tags": [],
          "target": "alias(summarize(sumSeries(*.clari5.platform.applayer.health.Clari5Health.retry.NOESIS.*.m1_rate), '1m', 'sum', true), 'retry')",
          "textEditor": true
        },
        {
          "alias": "Errors",
          "groupBy": [
            {
              "params": [
                "$__interval"
              ],
              "type": "time"
            },
            {
              "params": [
                "null"
              ],
              "type": "fill"
            }
          ],
          "orderByTime": "ASC",
          "policy": "default",
          "query": "SELECT mean(\"m1_rate\") FROM \"NOESIS_error\" WHERE (\"AppId\" =~ /^$CMQInstance$/) AND $timeFilter GROUP BY time($__interval)",
          "rawQuery": true,
          "refId": "G",
          "resultFormat": "time_series",
          "select": [
            [
              {
                "params": [
                  "value"
                ],
                "type": "field"
              },
              {
                "params": [],
                "type": "mean"
              }
            ]
          ],
          "tags": []
        }
      ],
      "thresholds": [],
      "timeFrom": null,
      "timeRegions": [],
      "timeShift": null,
      "title": "NOESIS",
      "tooltip": {
        "shared": true,
        "sort": 0,
        "value_type": "individual"
      },
      "type": "graph",
      "xaxis": {
        "buckets": null,
        "mode": "time",
        "name": null,
        "show": true,
        "values": []
      },
      "yaxes": [
        {
          "format": "short",
          "label": null,
          "logBase": 1,
          "max": null,
          "min": null,
          "show": true
        },
        {
          "format": "short",
          "label": null,
          "logBase": 1,
          "max": null,
          "min": null,
          "show": true
        }
      ],
      "yaxis": {
        "align": false,
        "alignLevel": null
      }
    },
    {
      "aliasColors": {
        "incoming": "#CCA300",
        "outgoing": "#890F02",
        "pending": "#0A437C",
        "retry": "#6D1F62"
      },
      "bars": false,
      "dashLength": 10,
      "dashes": false,
      "datasource": "${DS_INFLUXDB}",
      "fill": 1,
      "gridPos": {
        "h": 7,
        "w": 24,
        "x": 0,
        "y": 14
      },
      "id": 3,
      "legend": {
        "avg": false,
        "current": false,
        "max": false,
        "min": false,
        "show": true,
        "total": false,
        "values": false
      },
      "lines": true,
      "linewidth": 1,
      "links": [],
      "nullPointMode": "connected",
      "percentage": false,
      "pointradius": 5,
      "points": false,
      "renderer": "flot",
      "seriesOverrides": [],
      "spaceLength": 10,
      "stack": false,
      "steppedLine": false,
      "targets": [
        {
          "alias": "pendings",
          "dsType": "influxdb",
          "groupBy": [
            {
              "params": [
                "$__interval"
              ],
              "type": "time"
            },
            {
              "params": [
                "null"
              ],
              "type": "fill"
            }
          ],
          "hide": false,
          "measurement": "/.*pending.CMS.*/",
          "orderByTime": "ASC",
          "policy": "default",
          "query": "SELECT mean(\"m1_rate\") FROM \"CMS_pendingFiles\" WHERE (\"AppId\" =~ /^$CMQInstance$/) AND $timeFilter GROUP BY time($__interval)",
          "rawQuery": true,
          "refId": "A",
          "resultFormat": "time_series",
          "select": [
            [
              {
                "params": [
                  "one-minute"
                ],
                "type": "field"
              },
              {
                "params": [],
                "type": "mean"
              }
            ]
          ],
          "tags": [],
          "target": "alias(summarize(sumSeries(*.clari5.platform.applayer.health.Clari5Health.incoming.CMS.*.m1_rate), '1m', 'sum', true), 'incoming')",
          "textEditor": true
        },
        {
          "alias": "incoming",
          "dsType": "influxdb",
          "groupBy": [
            {
              "params": [
                "$__interval"
              ],
              "type": "time"
            },
            {
              "params": [
                "null"
              ],
              "type": "fill"
            }
          ],
          "hide": false,
          "measurement": "/.*incoming.CMS.*/",
          "orderByTime": "ASC",
          "policy": "default",
          "query": "SELECT mean(\"m1_rate\") FROM \"CMS_incoming\" WHERE (\"AppId\" =~ /^$CMQInstance$/) AND $timeFilter GROUP BY time($__interval)",
          "rawQuery": true,
          "refId": "B",
          "resultFormat": "time_series",
          "select": [
            [
              {
                "params": [
                  "one-minute"
                ],
                "type": "field"
              },
              {
                "params": [],
                "type": "mean"
              }
            ]
          ],
          "tags": [],
          "target": "alias(summarize(sumSeries(*.clari5.platform.applayer.health.Clari5Health.sent.CMS.*.m1_rate), '1m', 'sum', true), 'sent')",
          "textEditor": true
        },
        {
          "alias": "completed",
          "dsType": "influxdb",
          "groupBy": [
            {
              "params": [
                "$__interval"
              ],
              "type": "time"
            },
            {
              "params": [
                "null"
              ],
              "type": "fill"
            }
          ],
          "hide": false,
          "measurement": "/.*completed.CMS.*/",
          "orderByTime": "ASC",
          "policy": "default",
          "query": "SELECT mean(\"m1_rate\") FROM \"CMS_completed\" WHERE (\"AppId\" =~ /^$CMQInstance$/) AND $timeFilter GROUP BY time($__interval)",
          "rawQuery": true,
          "refId": "C",
          "resultFormat": "time_series",
          "select": [
            [
              {
                "params": [
                  "one-minute"
                ],
                "type": "field"
              },
              {
                "params": [],
                "type": "mean"
              }
            ]
          ],
          "tags": [],
          "target": "alias(summarize(sumSeries(*.clari5.platform.applayer.health.Clari5Health.pending.CMS.*.m1_rate), '1m', 'sum', true), 'pending')",
          "textEditor": true
        },
        {
          "alias": "sent",
          "dsType": "influxdb",
          "groupBy": [
            {
              "params": [
                "$__interval"
              ],
              "type": "time"
            },
            {
              "params": [
                "null"
              ],
              "type": "fill"
            }
          ],
          "hide": false,
          "measurement": "/.*sent.CMS.*/",
          "orderByTime": "ASC",
          "policy": "default",
          "query": "SELECT mean(\"m1_rate\") FROM \"CMS_sent\" WHERE (\"AppId\" =~ /^$CMQInstance$/) AND $timeFilter GROUP BY time($__interval)",
          "rawQuery": true,
          "refId": "D",
          "resultFormat": "time_series",
          "select": [
            [
              {
                "params": [
                  "one-minute"
                ],
                "type": "field"
              },
              {
                "params": [],
                "type": "mean"
              }
            ]
          ],
          "tags": [],
          "target": "alias(summarize(sumSeries(*.clari5.platform.applayer.health.Clari5Health.retry.CMS.*.m1_rate), '1m', 'sum', true), 'retry')",
          "textEditor": true
        },
        {
          "alias": "error",
          "dsType": "influxdb",
          "groupBy": [
            {
              "params": [
                "$__interval"
              ],
              "type": "time"
            },
            {
              "params": [
                "null"
              ],
              "type": "fill"
            }
          ],
          "hide": false,
          "measurement": "/.*error.CMS.*/",
          "orderByTime": "ASC",
          "policy": "default",
          "query": "SELECT mean(\"m1_rate\") FROM \"CMS_error\" WHERE (\"AppId\" =~ /^$CMQInstance$/) AND $timeFilter GROUP BY time($__interval)",
          "rawQuery": true,
          "refId": "F",
          "resultFormat": "time_series",
          "select": [
            [
              {
                "params": [
                  "one-minute"
                ],
                "type": "field"
              },
              {
                "params": [],
                "type": "mean"
              }
            ]
          ],
          "tags": [],
          "target": "alias(summarize(sumSeries(*.clari5.platform.applayer.health.Clari5Health.completed.CMS.*.m1_rate), '1m', 'sum', true), 'completed')",
          "textEditor": true
        },
        {
          "alias": "retry",
          "dsType": "influxdb",
          "groupBy": [
            {
              "params": [
                "$__interval"
              ],
              "type": "time"
            },
            {
              "params": [
                "null"
              ],
              "type": "fill"
            }
          ],
          "hide": false,
          "measurement": "/.*retry.CMS.*/",
          "orderByTime": "ASC",
          "policy": "default",
          "query": "SELECT mean(\"m1_rate\") FROM \"CMS_retry\" WHERE (\"AppId\" =~ /^$CMQInstance$/) AND $timeFilter GROUP BY time($__interval)",
          "rawQuery": true,
          "refId": "E",
          "resultFormat": "time_series",
          "select": [
            [
              {
                "params": [
                  "one-minute"
                ],
                "type": "field"
              },
              {
                "params": [],
                "type": "mean"
              }
            ]
          ],
          "tags": [],
          "target": "alias(summarize(sumSeries(*.clari5.platform.applayer.health.Clari5Health.error.CMS.*.m1_rate), '1m', 'sum', true), 'error')",
          "textEditor": true
        }
      ],
      "thresholds": [],
      "timeFrom": null,
      "timeRegions": [],
      "timeShift": null,
      "title": "CMS",
      "tooltip": {
        "shared": true,
        "sort": 0,
        "value_type": "individual"
      },
      "type": "graph",
      "xaxis": {
        "buckets": null,
        "mode": "time",
        "name": null,
        "show": true,
        "values": []
      },
      "yaxes": [
        {
          "format": "short",
          "label": null,
          "logBase": 1,
          "max": null,
          "min": null,
          "show": true
        },
        {
          "format": "short",
          "label": null,
          "logBase": 1,
          "max": null,
          "min": null,
          "show": true
        }
      ],
      "yaxis": {
        "align": false,
        "alignLevel": null
      }
    }
  ],
  "refresh": "1m",
  "schemaVersion": 16,
  "style": "dark",
  "tags": [],
  "templating": {
    "list": [
      {
        "allValue": null,
        "current": {},
        "datasource": "${DS_INFLUXDB}",
        "definition": "SHOW TAG VALUES FROM HOST_incoming WITH KEY = \"AppId\"",
        "hide": 0,
        "includeAll": true,
        "label": "CMQ Instance",
        "multi": true,
        "name": "CMQInstance",
        "options": [],
        "query": "SHOW TAG VALUES FROM HOST_incoming WITH KEY = \"AppId\"",
        "refresh": 1,
        "regex": "",
        "skipUrlSync": false,
        "sort": 0,
        "tagValuesQuery": "",
        "tags": [],
        "tagsQuery": "",
        "type": "query",
        "useTags": false
      }
    ]
  },
  "time": {
    "from": "now-2d",
    "to": "now-1d"
  },
  "timepicker": {
    "refresh_intervals": [
      "5s",
      "10s",
      "30s",
      "1m",
      "5m",
      "15m",
      "30m",
      "1h",
      "2h",
      "1d"
    ],
    "time_options": [
      "5m",
      "15m",
      "1h",
      "6h",
      "12h",
      "24h",
      "2d",
      "7d",
      "30d"
    ]
  },
  "timezone": "",
  "title": "CMQ",
  "uid": "jXgjzCXmk",
  "version": 2
}