{
  "config": {
    "lang": [
      "en"
    ],
    "prebuild_index": false,
    "separator": "[\\s\\-]+"
  },
  "docs": [
    {
      "location": "",
      "text": "Clari5 AI Java Modules List Manager Job FACT UAC CMS Frontend Modules List App Fact Query Builder UAC Internal Library Modules List Common DI MS-core",
      "title": "Clari5 AI"
    },
    {
      "location": "#clari5-ai",
      "text": "",
      "title": "Clari5 AI"
    },
    {
      "location": "#java-modules-list",
      "text": "Manager Job FACT UAC CMS",
      "title": "Java Modules List"
    },
    {
      "location": "#frontend-modules-list",
      "text": "App Fact Query Builder UAC",
      "title": "Frontend Modules List"
    },
    {
      "location": "#internal-library-modules-list",
      "text": "Common DI MS-core",
      "title": "Internal Library Modules List"
    },
    {
      "location": "1.0/BUILD-STEPS/",
      "text": "Build Steps Important Make sure CLARI5_HOME is exported to root directory of this git repo for all below commands to work. Building and Packaging all modules This will build all the modules from start and package them. ${ CLARI5_HOME } /bin/scripts/docker-build.sh external_version internal_version \\ ${ CLARI5_HOME } /bin/scripts/package-int.sh external_version internal_version \\ ${ CLARI5_HOME } /bin/scripts/package-ext.sh external_version internal_version \\ ${ CLARI5_HOME } /bin/scripts/package-install.sh external_version internal_version Building all modules This will build all the modules. ${ CLARI5_HOME } /bin/scripts/docker-build.sh external_version internal_version Packaging Packaging includes three files : - clari5ai_install.tar.gz - images-ext- .tar - images-int- .tar clari5ai_install.tar.gz - Has all the scripts and related files required to deploy applications using images. It also contains images related to setup of deployment. images-ext- ext_ver .tar - Has all the external images that need to be deployed. There is a different package for external and different for internal images, as internal images are expected to be released more frequently than external packages. images-int- int_ver .tar - Has all the internal images and is considerably smaller in size than images-ext- ext_ver .tar , and will be more frequently updated. Internal Images Packaging Run following command to create the package for internal images. ${ CLARI5_HOME } /bin/scripts/package-int.sh internal_version External Images Packaging Run following command to create the package for external images. ${ CLARI5_HOME } /bin/scripts/package-ext.sh external_version Installation Packaging Run following command to create the package for docker files and other extra files. ${ CLARI5_HOME } /bin/scripts/package-install.sh external_version internal_version Creating a Patch In Clari5 Genie App, patch can be created using only data_center image. Build all components as specified here . Make sure all components are build as patch cannot be sent partially for one module and all module changes will be sent. Run the following Build the data_center image using following command. cd ./bin/docker/apps docker-compose -f clari5-docker-build.yml build clari5.data_center Deploying changes on on AWS If you need to push changes to Clari5 AWS, you need to push image to a registry which is accessible over the internet. (AWS has its own registry but is not accessible for push) Run following command to send it to GenieDemo docker image tag clari5/data_center:snapshot geniedemo.clari5.com:9898/clari5/data_center:snapshot docker image push geniedemo.clari5.com:9898/clari5/data_center:1.2 Now that image is accessible on GenieDemo docker image pull geniedemo.clari5.com:9898/clari5/data_center:1.2 docker image tag geniedemo.clari5.com:9898/clari5/data_center:snapshot clari5/data_center:1.2 Now to deploy the changes docker service update --force runtime-stack_data_center UI changes are now available, if there are any other changes in other modules, similarly restart the services as required, eg. manager docker service update --force runtime-stack_manager Publishing package Copy the created installer into scp clari5ai_install.tar.gz root@registry.clari5.com:/root/installers/1.2/",
      "title": "Build Steps"
    },
    {
      "location": "1.0/BUILD-STEPS/#build-steps",
      "text": "Important Make sure CLARI5_HOME is exported to root directory of this git repo for all below commands to work.",
      "title": "Build Steps"
    },
    {
      "location": "1.0/BUILD-STEPS/#building-and-packaging-all-modules",
      "text": "This will build all the modules from start and package them. ${ CLARI5_HOME } /bin/scripts/docker-build.sh external_version internal_version \\ ${ CLARI5_HOME } /bin/scripts/package-int.sh external_version internal_version \\ ${ CLARI5_HOME } /bin/scripts/package-ext.sh external_version internal_version \\ ${ CLARI5_HOME } /bin/scripts/package-install.sh external_version internal_version",
      "title": "Building and Packaging all modules"
    },
    {
      "location": "1.0/BUILD-STEPS/#building-all-modules",
      "text": "This will build all the modules. ${ CLARI5_HOME } /bin/scripts/docker-build.sh external_version internal_version",
      "title": "Building all modules"
    },
    {
      "location": "1.0/BUILD-STEPS/#packaging",
      "text": "Packaging includes three files : - clari5ai_install.tar.gz - images-ext- .tar - images-int- .tar clari5ai_install.tar.gz - Has all the scripts and related files required to deploy applications using images. It also contains images related to setup of deployment. images-ext- ext_ver .tar - Has all the external images that need to be deployed. There is a different package for external and different for internal images, as internal images are expected to be released more frequently than external packages. images-int- int_ver .tar - Has all the internal images and is considerably smaller in size than images-ext- ext_ver .tar , and will be more frequently updated.",
      "title": "Packaging"
    },
    {
      "location": "1.0/BUILD-STEPS/#internal-images-packaging",
      "text": "Run following command to create the package for internal images. ${ CLARI5_HOME } /bin/scripts/package-int.sh internal_version",
      "title": "Internal Images Packaging"
    },
    {
      "location": "1.0/BUILD-STEPS/#external-images-packaging",
      "text": "Run following command to create the package for external images. ${ CLARI5_HOME } /bin/scripts/package-ext.sh external_version",
      "title": "External Images Packaging"
    },
    {
      "location": "1.0/BUILD-STEPS/#installation-packaging",
      "text": "Run following command to create the package for docker files and other extra files. ${ CLARI5_HOME } /bin/scripts/package-install.sh external_version internal_version",
      "title": "Installation Packaging"
    },
    {
      "location": "1.0/BUILD-STEPS/#creating-a-patch",
      "text": "In Clari5 Genie App, patch can be created using only data_center image. Build all components as specified here . Make sure all components are build as patch cannot be sent partially for one module and all module changes will be sent. Run the following Build the data_center image using following command. cd ./bin/docker/apps docker-compose -f clari5-docker-build.yml build clari5.data_center",
      "title": "Creating a Patch"
    },
    {
      "location": "1.0/BUILD-STEPS/#deploying-changes-on-on-aws",
      "text": "If you need to push changes to Clari5 AWS, you need to push image to a registry which is accessible over the internet. (AWS has its own registry but is not accessible for push) Run following command to send it to GenieDemo docker image tag clari5/data_center:snapshot geniedemo.clari5.com:9898/clari5/data_center:snapshot docker image push geniedemo.clari5.com:9898/clari5/data_center:1.2 Now that image is accessible on GenieDemo docker image pull geniedemo.clari5.com:9898/clari5/data_center:1.2 docker image tag geniedemo.clari5.com:9898/clari5/data_center:snapshot clari5/data_center:1.2 Now to deploy the changes docker service update --force runtime-stack_data_center UI changes are now available, if there are any other changes in other modules, similarly restart the services as required, eg. manager docker service update --force runtime-stack_manager",
      "title": "Deploying changes on on AWS"
    },
    {
      "location": "1.0/BUILD-STEPS/#publishing-package",
      "text": "Copy the created installer into scp clari5ai_install.tar.gz root@registry.clari5.com:/root/installers/1.2/",
      "title": "Publishing package"
    },
    {
      "location": "1.0/GrafanaDashboard/",
      "text": "Grafana Dashboard APIs Create dashboard through APIs Create an Organization in existing admin POST /api/orgs HTTP / 1.1 Accept : application/json Content-Type : application/json { name : New Organization. } Set created Organization to current Organization POST http://admin:cxps123@localhost:3000/api/user/using/:organizationId HTTP / 1.1 Accept : application/json Content-Type : application/json Create a datasource in existing Organization \\ POST http://admin:cxps123@localhost:3000/api/datasources HTTP / 1.1 Accept : application/json Content-Type : application/json { name : Dashboard Name , type : elasticsearch , url : http://localhost:9200 , access : proxy , basicAuth : false , orgId : 3 , isDefault : true , database : [telegraf-]YYYY.MM.DD , jsonData : { interval : Daily , esVersion : 60 } } Create a user POST http://admin:cxps123@localhost:3000/api/admin/users HTTP / 1.1 Accept : application/json Content-Type : application/json { name : User , email : user@graf.com , login : user , password : userpassword } Create/Update Dashboard POST /api/dashboards/db HTTP / 1.1 Accept : application/json Content-Type : application/json Authorization : Bearer eyJrIjoiT0tTcG1pUlY2RnVKZTFVaDFsNFZXdE9ZWmNrMkZYbk { dashboard : { id : null , uid : null , title : Production Overview , tags : [ templated ], timezone : browser , schemaVersion : 16 , version : 0 }, folderId : 0 , overwrite : false }",
      "title": "Grafana Dashboard APIs"
    },
    {
      "location": "1.0/GrafanaDashboard/#grafana-dashboard-apis",
      "text": "",
      "title": "Grafana Dashboard APIs"
    },
    {
      "location": "1.0/GrafanaDashboard/#create-dashboard-through-apis",
      "text": "Create an Organization in existing admin POST /api/orgs HTTP / 1.1 Accept : application/json Content-Type : application/json { name : New Organization. } Set created Organization to current Organization POST http://admin:cxps123@localhost:3000/api/user/using/:organizationId HTTP / 1.1 Accept : application/json Content-Type : application/json Create a datasource in existing Organization \\ POST http://admin:cxps123@localhost:3000/api/datasources HTTP / 1.1 Accept : application/json Content-Type : application/json { name : Dashboard Name , type : elasticsearch , url : http://localhost:9200 , access : proxy , basicAuth : false , orgId : 3 , isDefault : true , database : [telegraf-]YYYY.MM.DD , jsonData : { interval : Daily , esVersion : 60 } } Create a user POST http://admin:cxps123@localhost:3000/api/admin/users HTTP / 1.1 Accept : application/json Content-Type : application/json { name : User , email : user@graf.com , login : user , password : userpassword } Create/Update Dashboard POST /api/dashboards/db HTTP / 1.1 Accept : application/json Content-Type : application/json Authorization : Bearer eyJrIjoiT0tTcG1pUlY2RnVKZTFVaDFsNFZXdE9ZWmNrMkZYbk { dashboard : { id : null , uid : null , title : Production Overview , tags : [ templated ], timezone : browser , schemaVersion : 16 , version : 0 }, folderId : 0 , overwrite : false }",
      "title": "Create dashboard through APIs"
    },
    {
      "location": "1.0/PROD-STEPS/",
      "text": "Genie Installation Installing Docker on clean machine Info Steps tested on Ubuntu 18.04 and CentOS 7 Steps to install (Ubuntu): sudo apt-get update sudo apt-get install -y \\ apt-transport-https \\ ca-certificates \\ curl \\ software-properties-common curl -fsSL https://download.docker.com/linux/ubuntu/gpg | sudo apt-key add - sudo add-apt-repository \\ deb [arch=amd64] https://download.docker.com/linux/ubuntu \\ $( lsb_release -cs ) \\ stable sudo apt-get update sudo apt-get install -y docker-ce Steps to install (CentOS): sudo yum install -y \\ yum-utils \\ device-mapper-persistent-data \\ lvm2 # Make sure that System time is correct # Follow http://sysops.km2gd.com/adding-docker-ce-repo-to-centos-peers-certificate-has-expired-yum/ sudo yum-config-manager \\ --add-repo \\ https://download.docker.com/linux/centos/docker-ce.repo sudo yum install -y docker-ce sudo systemctl start docker Need help with an Error? If you get an error Error : Package : 3 : docker - ce - 18.09 . 6 - 3 . el7 . x86_64 ( docker - ce - stable ) Requires : container - selinux = 2.9 Go to http://mirror.centos.org/centos/7/extras/x86_64/Packages/, and find the installer that suits your system for the package container-selinux . Download and install it, and then run docker-ce installation again. How to test Wait for a while as this requires internet connection to pull the hello-world image. sudo docker run hello-world Removing sudo from docker sudo groupadd docker sudo gpasswd -a $USER docker # Logout all users or run the following command newgrp docker # Now you should be able to run following without sudo docker run hello-world Install docker-compose docker-compose --version # Check if it is already installed sudo curl -L https://github.com/docker/compose/releases/download/1.22.0/docker-compose- $( uname -s ) - $( uname -m ) -o /usr/local/bin/docker-compose sudo chmod +x /usr/local/bin/docker-compose docker-compose --version Configure docker daemon Important master_node_ip below is the IP of machine which is reachable by all other machines working in this cluster. Master node IP refers to machine where installation is being done, as only this machine will have an instance of registry. Set this to 127.0.0.1 if deployment is single machine. Add the following in /etc/docker/daemon.json and restart docker daemon. (Requires sudo permission) { log-driver : json-file , log-opts : { max-size : 100m , max-file : 10 }, registry-mirrors : [ https://registry.clari5.com:19443 , http:// master_node_ip :9898 ], insecure-registries : [ master_node_ip :9898 ] } Restart docker using sudo systemctl restart docker Install MYSQL / MariaDB (Optional) Note Genie Stack already contains MariaDB configured for to work with Genie, following steps are only required if you need MYSQL not to be running inside docker. Installation manual for MariaDB on CentOS 7 or on Ubuntu In any of the installation, make sure that one user (which be used by Genie Applications) has accessible on '%' host, as docker will be accessing DB via different IPs. If not enabled, you can enable this by following query (replace DB_USER and DB_PASS with database username and password) GRANT ALL ON * . * TO $DB_USER @ % IDENTIFIED BY $DB_PASS Make sure to update runtime/conf/prod.env with new Database credentials. Important If DB_HOST is localhost or 127.0.0.1 for your setup, use the output IP of ip addr show docker0 | grep inet this would usually be 172.17.0.1 To setup machine for deployment One-time setup Run the following to create clari5_home directory mkdir clari5_home cd clari5_home export CLARI5_HOME = ` pwd ` echo export CLARI5_HOME= ${ CLARI5_HOME } ~/.bashrc Copy the clari5ai_install.tar.gz and all installers into CLARI5_HOME. cp path_to_installers ${ CLARI5_HOME } tar xvzf clari5ai_install.tar.gz ./setup.sh ext_ver Warning Do not use localhost in any environment variable If DB_HOST is localhost , use the output IP of ip addr show docker0 | grep inet , this would usually be 172.17.0.1 Setting up worker nodes (Only for multi-machine/cluster setup) On each worker node in cluster, make sure docker is installed, and all machines in cluster are reachable to each other. Run the following on master node docker swarm join-token worker This will output a command that needs to run on each machine which will work as worker node in a cluster setup. Note Stack only needs to be brought up on master node and deployment will be done on all worker nodes. Make sure all the images tar files are inside CLARI5_HOME. On master node, run following command to deploy the stack. cp installer_files ${ CLARI5_HOME } ./deploy.sh ext_ver int_ver By default this will bring up self signed server on BASE_DN specified in runtime/conf/prod.env . To setup with signed certificate, go to last section. Using Signed Certificates To use signed certificates instead of self-signed certificates, copy the certificate with name runtime/conf/certs/clari5.crt and the key with name runtime/conf/certs/clari5.key . Open runtime/conf/clari5web.dockerFile and uncomment following lines in it, like this. COPY certs/clari5.key /certs/clari5.key COPY certs/clari5.bundle.crt /certs/clari5.crt COPY nginx.template.cert.conf /tmp/nginx.template.conf And comment following line in it, like this # COPY nginx.template.self.conf /tmp/nginx.template.conf If the deployment is already done, run the following, to reflect the changes. Else skip this step and continue where you left. ./deploy.sh ext_ver int_ver docker service update --force runtime-stack_clari5web",
      "title": "Genie Installation"
    },
    {
      "location": "1.0/PROD-STEPS/#genie-installation",
      "text": "",
      "title": "Genie Installation"
    },
    {
      "location": "1.0/PROD-STEPS/#installing-docker-on-clean-machine",
      "text": "Info Steps tested on Ubuntu 18.04 and CentOS 7",
      "title": "Installing Docker on clean machine"
    },
    {
      "location": "1.0/PROD-STEPS/#steps-to-install-ubuntu",
      "text": "sudo apt-get update sudo apt-get install -y \\ apt-transport-https \\ ca-certificates \\ curl \\ software-properties-common curl -fsSL https://download.docker.com/linux/ubuntu/gpg | sudo apt-key add - sudo add-apt-repository \\ deb [arch=amd64] https://download.docker.com/linux/ubuntu \\ $( lsb_release -cs ) \\ stable sudo apt-get update sudo apt-get install -y docker-ce",
      "title": "Steps to install (Ubuntu):"
    },
    {
      "location": "1.0/PROD-STEPS/#steps-to-install-centos",
      "text": "sudo yum install -y \\ yum-utils \\ device-mapper-persistent-data \\ lvm2 # Make sure that System time is correct # Follow http://sysops.km2gd.com/adding-docker-ce-repo-to-centos-peers-certificate-has-expired-yum/ sudo yum-config-manager \\ --add-repo \\ https://download.docker.com/linux/centos/docker-ce.repo sudo yum install -y docker-ce sudo systemctl start docker Need help with an Error? If you get an error Error : Package : 3 : docker - ce - 18.09 . 6 - 3 . el7 . x86_64 ( docker - ce - stable ) Requires : container - selinux = 2.9 Go to http://mirror.centos.org/centos/7/extras/x86_64/Packages/, and find the installer that suits your system for the package container-selinux . Download and install it, and then run docker-ce installation again.",
      "title": "Steps to install (CentOS):"
    },
    {
      "location": "1.0/PROD-STEPS/#how-to-test",
      "text": "Wait for a while as this requires internet connection to pull the hello-world image. sudo docker run hello-world",
      "title": "How to test"
    },
    {
      "location": "1.0/PROD-STEPS/#removing-sudo-from-docker",
      "text": "sudo groupadd docker sudo gpasswd -a $USER docker # Logout all users or run the following command newgrp docker # Now you should be able to run following without sudo docker run hello-world",
      "title": "Removing sudo from docker"
    },
    {
      "location": "1.0/PROD-STEPS/#install-docker-compose",
      "text": "docker-compose --version # Check if it is already installed sudo curl -L https://github.com/docker/compose/releases/download/1.22.0/docker-compose- $( uname -s ) - $( uname -m ) -o /usr/local/bin/docker-compose sudo chmod +x /usr/local/bin/docker-compose docker-compose --version",
      "title": "Install docker-compose"
    },
    {
      "location": "1.0/PROD-STEPS/#configure-docker-daemon",
      "text": "Important master_node_ip below is the IP of machine which is reachable by all other machines working in this cluster. Master node IP refers to machine where installation is being done, as only this machine will have an instance of registry. Set this to 127.0.0.1 if deployment is single machine. Add the following in /etc/docker/daemon.json and restart docker daemon. (Requires sudo permission) { log-driver : json-file , log-opts : { max-size : 100m , max-file : 10 }, registry-mirrors : [ https://registry.clari5.com:19443 , http:// master_node_ip :9898 ], insecure-registries : [ master_node_ip :9898 ] } Restart docker using sudo systemctl restart docker",
      "title": "Configure docker daemon"
    },
    {
      "location": "1.0/PROD-STEPS/#install-mysql-mariadb-optional",
      "text": "Note Genie Stack already contains MariaDB configured for to work with Genie, following steps are only required if you need MYSQL not to be running inside docker. Installation manual for MariaDB on CentOS 7 or on Ubuntu In any of the installation, make sure that one user (which be used by Genie Applications) has accessible on '%' host, as docker will be accessing DB via different IPs. If not enabled, you can enable this by following query (replace DB_USER and DB_PASS with database username and password) GRANT ALL ON * . * TO $DB_USER @ % IDENTIFIED BY $DB_PASS Make sure to update runtime/conf/prod.env with new Database credentials. Important If DB_HOST is localhost or 127.0.0.1 for your setup, use the output IP of ip addr show docker0 | grep inet this would usually be 172.17.0.1",
      "title": "Install MYSQL / MariaDB (Optional)"
    },
    {
      "location": "1.0/PROD-STEPS/#to-setup-machine-for-deployment",
      "text": "",
      "title": "To setup machine for deployment"
    },
    {
      "location": "1.0/PROD-STEPS/#one-time-setup",
      "text": "Run the following to create clari5_home directory mkdir clari5_home cd clari5_home export CLARI5_HOME = ` pwd ` echo export CLARI5_HOME= ${ CLARI5_HOME } ~/.bashrc Copy the clari5ai_install.tar.gz and all installers into CLARI5_HOME. cp path_to_installers ${ CLARI5_HOME } tar xvzf clari5ai_install.tar.gz ./setup.sh ext_ver Warning Do not use localhost in any environment variable If DB_HOST is localhost , use the output IP of ip addr show docker0 | grep inet , this would usually be 172.17.0.1",
      "title": "One-time setup"
    },
    {
      "location": "1.0/PROD-STEPS/#setting-up-worker-nodes-only-for-multi-machinecluster-setup",
      "text": "On each worker node in cluster, make sure docker is installed, and all machines in cluster are reachable to each other. Run the following on master node docker swarm join-token worker This will output a command that needs to run on each machine which will work as worker node in a cluster setup. Note Stack only needs to be brought up on master node and deployment will be done on all worker nodes. Make sure all the images tar files are inside CLARI5_HOME. On master node, run following command to deploy the stack. cp installer_files ${ CLARI5_HOME } ./deploy.sh ext_ver int_ver By default this will bring up self signed server on BASE_DN specified in runtime/conf/prod.env . To setup with signed certificate, go to last section.",
      "title": "Setting up worker nodes (Only for multi-machine/cluster setup)"
    },
    {
      "location": "1.0/PROD-STEPS/#using-signed-certificates",
      "text": "To use signed certificates instead of self-signed certificates, copy the certificate with name runtime/conf/certs/clari5.crt and the key with name runtime/conf/certs/clari5.key . Open runtime/conf/clari5web.dockerFile and uncomment following lines in it, like this. COPY certs/clari5.key /certs/clari5.key COPY certs/clari5.bundle.crt /certs/clari5.crt COPY nginx.template.cert.conf /tmp/nginx.template.conf And comment following line in it, like this # COPY nginx.template.self.conf /tmp/nginx.template.conf If the deployment is already done, run the following, to reflect the changes. Else skip this step and continue where you left. ./deploy.sh ext_ver int_ver docker service update --force runtime-stack_clari5web",
      "title": "Using Signed Certificates"
    },
    {
      "location": "1.0/SYNC-AGENT/",
      "text": "Sync Agent Building Deploying AWS Changes Building Note Make sure ${CLARI5_HOME} is set. ./bin/scripts/create-mailer-stack.sh This will create a tar file named 'mailer-stack.tar.gz' in ${CLARI5_HOME}. ./bin/scripts/create-catcher.sh This will create a tar file named 'mailer-stack-catcher.tar.gz'. This tar is to be copied into every EFM instance, where stats need to be collected. How it works There is a Monitoring System deployed on Cloud and there is a data sync mechanism that is put in place at Bank Site to extract certain data points from EFM application and push to the cloud. On cloud further processing of these data point happens and then it is stored in secured environment to be used for representation on various graphs. A brief explanation of this process is as follows - Sync agent is installed as a new component in bank\u2019s env Sniffing agent is installed on all the machines running Clari5 application Sniffing agent sends data to Sync Agent Sync agent compresses the data and send the data out as an attachment in an Email (Via Banks SMTP to ensure auditable route) every 5 minutes. There is an email listener kept at Clari5 cloud which extracts this attachment and processes this data. This data is collected at Clari5 Central Dashboarding deployment Requirements Hardware Requirements Sync Agent Machine (4 Core , 8 GB Ram , 500 GB HDD) Add the sync agent machine within the same network as Clari5 Port to be open on sync agent (9000, 9087, 8186) Access to Bank SMTP server for sending mail with 5 MB attachments Email Server, Port, User and Password details. (optional) Auto archive sent mails every 3 hours One time root access on all Clari5 machines (to install telegraf) Software Requirement Telegraf (on EFM instances) Docker (on Collector instance) Deploying Prerequisite Sync Agent requires docker to be installed on one of the machines and also requires it to be in the same network. In this document we will call this instance as MAILER. Follow steps on Docker Docs to install docker on mailer machine. Also mailer should also be accessible via browser, as we need access NIFI on it. Sync Agent also requires an telegraf to be installed on each of the EFM instances. Follow steps on Telegraf Docs to install telegraf on EFM instances. If instance is RHEL or Ubuntu flavours of Linux, their respective rpm and deb files are added in package by default. Deploying mailer stack Untar mailer-stack.tar.gz Open conf/prod.env and change the BANK_ID to corresponding . Run the following command ./deploy-mailer-stack.sh After deployment is done. Open Nifi using http://localhost:9087/nifi Upload SendMailAnyTenant.xml template using Right Click - Upload template Drag template box from top of the screen to dashboard Right click the SendMail and click Configure . (Added screenshots below for reference) Update the following properties: SMTP hostname SMTP Port Username Password From Email Address (same as Username) To Email address should be of format: TENANT@sync.clari5now.com Click the Start button on the left panel (Added screenshots below for reference). Follow the Testing to make sure entered credentials work. Testing Log into the machine where mailer-stack is deployed. To verify if all containers are up and running open Portainer in Browser ( http://localhost:9000 ). Run the following to bring up portainer if it not running. docker run -d -p 9000 :9000 -v /var/run/docker.sock:/var/run/docker.sock -v portainer_data:/data portainer/portainer Send following curl request to send a sample data to mailer-stack. curl -i -XPOST http://localhost:8186/write?db=mydb --data-binary cpu_load_short,host=server01,region=us-west value=0.64 1434055562000000000 Wait for 5 mins (or the config time), for NIFI to send the mail ( can be verified on http://localhost:9087/nifi ). Once the mail is sent, check in inbox it must be read, if AWS is setup accordingly. Log into Clari5 Bank website, open Grafana and then open AWS Mail Attachment Metrics Dashboard Check the chart for bank. You should see one email received. Creating / Deploying Collector to each machine. Following steps are to be run on each machine where EFM/CC is installed Download mailer-stack-collector.tar.gz Untar mailer-stack-catcher.tar.gz Run ./install-telegraf.sh on all machines and make sure that no errors occur. Open remote-runtime/mailer-stack/host-telegraf.conf and edit the following variables Replace bank_id with corresponding tenant_id Replace collector_ip with corresponding IP where mailer-stack is installed Replace user : password @ tcp ( host : 3306 ) with its corresponding values for MYSQL server, if mysql is being used, else comment the whole block starting with [[inputs.mysql]] Replace Server=host;Port=1433;User Id=user;Password=password;app name=mssql;log=1; with its corresponding values for MSSQL server, if mssql is being used, else comment the whole block starting with [[inputs.sqlserver]] Replace interface_here with specific interface values. Replace INSTALLION_DEP_BASE with absolute path of deployment directory of EFM/CC. Start telegraf using systemctl or service command. sudo systemctl start telegraf.service OR sudo service telegraf.service start Testing Log into the machine where mailer-stack is deployed. To verify if all containers are up and running open Portainer in Browser (http://localhost:9020). Open Nifi (http://localhost:9087/nifi) and go to Test Mail Send Process Group, Update the following properties: In SetAttributes, update path attribute to and replace it with apm/telegraf/ . Update PutEmail similar to that mentioned above. Run all the processes in the current process group. To check if Email is being sent, read Troubleshooting of this document. Log into Clari5 Bank website, open Grafana and then open AWS Mail Attachment Metrics Dashboard. Check the chart for bank. You should see one email received. Troubleshooting APM Follow below given steps to troubleshoot the issue related to mail not reaching Cloud. These same steps are to be followed any time mail stop getting delivered to the cloud system. Check if docker is running. Run docker ps . If it gives a list of containers that are running, then docker is running. If not running, bring up docker using systemctl or service as mentioned in deployment steps above. After starting docker wait for one minute and check if portainer, nifi, telegraf is running, by running docker ps. They should start on their own but if they do not start then run deploy-mailer-stack.sh Check if Portainer is running Open http://localhost:9020 , if portainer is accessible then it is running. Else follow all the steps for deployment mentioned at the start of this document. Check if nifi is running in Portainer. Open http://localhost:9020 and click on containers on the left side menu. There should be a container with name mailer-stack_nifi_1 (Use search option if the list is long) Check the status of this container, it should be running. If you do not find this container, follow all the steps for deployment mentioned at the start of this document. If status is failed, check the logs to know the reason why it failed, then mark the checkbox for the given container and click the restart button on top of screen. If state of the container goes back to failed after restart, report the issue. If status is stopped, then just restart as mentioned above. Check if telegraf is running in Portainer. Open http://localhost:9020 _and click on containers on left side menu ._ There should be three containers with name mailer-stack_telegraf_1, mailer-stack_telegraf-slow-freq_1, mailer-stack_telegraf-high-freq_1 (Use search option if the list is long). If any of them not running, and the status is failed, click on logs button, make sure to know the reason or which container failed, then mark the checkbox for the given container and click the restart button on top of screen. If the state of the container goes back to failed after restart, report the issue. If any of their status is stopped, then just restart as mentioned above. Check if nifi is able to send mails Open http://localhost:9070 and open SendMail process group. Check if there are any errors in PutMail or any other process. To check if there is an error for any of the process, a small red box pops up in upper right corner of the process box. If there is a red box, then hover over the red box and a pop up will show the details of errors occurred. (Refer screenshot) Following are possible errors that might occur. Email Credentials incorrect. Solution : Stop the PutEmail process, and right click, then configure, update the credentials, start the PutEmail process. Could not establish connection. Solution: Stop the PutEmail process, and right click, then configure, correct the host/port details as they are incorrect, and start the process. OR SMTP server is down and mails are not being sent. When mails are not sent, files that were not sent are moved to telegraf-error-dir _in the installation directory of mailer-stack. After Nifi is working back again, move files from this directory back to _telegraf-dir . Cloud Setup (For Cloud Support Team) UAC Changes Creation of tenent in AWS UAC. URL - https://clari5bank.clari5.com/app/ Go to UAC logging into SUPERUSER user. Go to Tenant Screen, add tenant, using a name. Make sure that corresponding DN ( bank.clari5.com) is registered. Log into AWS to create nginx config for new tenant. Copy a tenant nginx config at ~/clari5_home/runtime/conf/ existing_tenant .nginx.template.conf with a new name as tenant_id .nginx.template.conf Replace all in the new config. set $tenant_id existing_tenant with set $tenant_id tenant_id server_name superset existing_tenant $BASE_DN with server_name superset tenant_id $BASE_DN server_name apm existing_tenant $BASE_DN; with server_name apm tenant_id $BASE_DN; server_name existing_tenant $BASE_DN; with server_name tenant_id $BASE_DN; ADD following line in clari5web.dockerFile COPY tenant_id .nginx.template.conf /tmp/ RUN envsubst $BASE_DN,$BASE_PORT /tmp/ tenant_id .nginx.template.conf /etc/nginx/conf.d/ tenant_id .nginx.conf Go the ~/clari5_home/runtime/ dir. Run the following command. docker-compose -f build.base-compose.yml build Run the following command to update the nginx to accept request coming from new tenant docker service update --force runtime-stack_clari5web Check the UI using https:// tenant_id bank.clari5.com/app . Create a new Role APM Role to access Grafana, add READ capability access to grafana-dashboards capability, log into AWS using ROLEMAKER. Authorize the role, log into AWS using ROLEAUTHORIZER. Create users named GRAFANA , APM_USER , and assign them APM Role . Authorize the users, log into AWS using USERAUTHORIZER. Influx Changes Log into AWS. Create Database in Influx DB in AWS using following curl command. curl -i -XPOST http://localhost:8886/query --data-urlencode q=CREATE DATABASE tenant_id Test using following curl -i -XPOST http://localhost:8886/write?db= tenant_id --data-binary cpu_load_short,host=server01,region=us-west value=0.64 1434055562000000000 Grafana Changes Log into AWS using Superuser of Clari5Bank. Go to APM Dashboards. In Settings right hand panel - Admin Settings Create new Organization. Switch to that Organization. Create Influx Datasource for influx and set following values. name: InfluxDB URL: http://172.17.0.1:8886 DATABASE: Leave username, password and other fields as default or blank. Left side panel Plus Sign - Import - Paste json and paste the json from ./runtime/extra/grafana_dashboards . Log into all the users for given tenant, and make sure to change the organization for each user in Grafana. Open Grafana using newly created tenant and log into SUPERUSER3, SUPERUSER, GRAFANA, APM_USER. Open Grafana using Clari5 tenant and log into SUPERUSER, navigate to Server Admin setting and now these users would already created. Give Read access in Grafana to -GRAFANA, -APM_USER in above created org, Editor access to -SUPERUSER3, Admin access to -SUPERUSER3. Nifi Changes Log into AWS using Superuser of Clari5Bank. Open Data Integration in menu. Go to SaveToInflux process group. Copy a processor with name Get old_tenant_id out files , paste it, and edit newly created properties with name Get tenant_id out files Adding Alerting for new tenant Log into AWS using Superuser of Clari5Bank and open APM Dashboards Go to AWS Mail Attachment Metrics dashboard , duplicate any one of the existing chart. There is option for it using More..., when you click on existing chart. Change the name of the chart and where clause in Query to draw Karnataka charts. Alerting is not duplicated by default. Open existing tenant chart in one tab and new tenant chart in new tab. Copy the alerting config manually. Add required channels to it",
      "title": "Sync Agent"
    },
    {
      "location": "1.0/SYNC-AGENT/#sync-agent",
      "text": "Building Deploying AWS Changes",
      "title": "Sync Agent"
    },
    {
      "location": "1.0/SYNC-AGENT/#building",
      "text": "Note Make sure ${CLARI5_HOME} is set. ./bin/scripts/create-mailer-stack.sh This will create a tar file named 'mailer-stack.tar.gz' in ${CLARI5_HOME}. ./bin/scripts/create-catcher.sh This will create a tar file named 'mailer-stack-catcher.tar.gz'. This tar is to be copied into every EFM instance, where stats need to be collected.",
      "title": "Building"
    },
    {
      "location": "1.0/SYNC-AGENT/#how-it-works",
      "text": "There is a Monitoring System deployed on Cloud and there is a data sync mechanism that is put in place at Bank Site to extract certain data points from EFM application and push to the cloud. On cloud further processing of these data point happens and then it is stored in secured environment to be used for representation on various graphs. A brief explanation of this process is as follows - Sync agent is installed as a new component in bank\u2019s env Sniffing agent is installed on all the machines running Clari5 application Sniffing agent sends data to Sync Agent Sync agent compresses the data and send the data out as an attachment in an Email (Via Banks SMTP to ensure auditable route) every 5 minutes. There is an email listener kept at Clari5 cloud which extracts this attachment and processes this data. This data is collected at Clari5 Central Dashboarding deployment",
      "title": "How it works"
    },
    {
      "location": "1.0/SYNC-AGENT/#requirements",
      "text": "",
      "title": "Requirements"
    },
    {
      "location": "1.0/SYNC-AGENT/#hardware-requirements",
      "text": "Sync Agent Machine (4 Core , 8 GB Ram , 500 GB HDD) Add the sync agent machine within the same network as Clari5 Port to be open on sync agent (9000, 9087, 8186) Access to Bank SMTP server for sending mail with 5 MB attachments Email Server, Port, User and Password details. (optional) Auto archive sent mails every 3 hours One time root access on all Clari5 machines (to install telegraf)",
      "title": "Hardware Requirements"
    },
    {
      "location": "1.0/SYNC-AGENT/#software-requirement",
      "text": "Telegraf (on EFM instances) Docker (on Collector instance)",
      "title": "Software Requirement"
    },
    {
      "location": "1.0/SYNC-AGENT/#deploying",
      "text": "",
      "title": "Deploying"
    },
    {
      "location": "1.0/SYNC-AGENT/#prerequisite",
      "text": "Sync Agent requires docker to be installed on one of the machines and also requires it to be in the same network. In this document we will call this instance as MAILER. Follow steps on Docker Docs to install docker on mailer machine. Also mailer should also be accessible via browser, as we need access NIFI on it. Sync Agent also requires an telegraf to be installed on each of the EFM instances. Follow steps on Telegraf Docs to install telegraf on EFM instances. If instance is RHEL or Ubuntu flavours of Linux, their respective rpm and deb files are added in package by default.",
      "title": "Prerequisite"
    },
    {
      "location": "1.0/SYNC-AGENT/#deploying-mailer-stack",
      "text": "Untar mailer-stack.tar.gz Open conf/prod.env and change the BANK_ID to corresponding . Run the following command ./deploy-mailer-stack.sh After deployment is done. Open Nifi using http://localhost:9087/nifi Upload SendMailAnyTenant.xml template using Right Click - Upload template Drag template box from top of the screen to dashboard Right click the SendMail and click Configure . (Added screenshots below for reference) Update the following properties: SMTP hostname SMTP Port Username Password From Email Address (same as Username) To Email address should be of format: TENANT@sync.clari5now.com Click the Start button on the left panel (Added screenshots below for reference). Follow the Testing to make sure entered credentials work.",
      "title": "Deploying mailer stack"
    },
    {
      "location": "1.0/SYNC-AGENT/#testing",
      "text": "Log into the machine where mailer-stack is deployed. To verify if all containers are up and running open Portainer in Browser ( http://localhost:9000 ). Run the following to bring up portainer if it not running. docker run -d -p 9000 :9000 -v /var/run/docker.sock:/var/run/docker.sock -v portainer_data:/data portainer/portainer Send following curl request to send a sample data to mailer-stack. curl -i -XPOST http://localhost:8186/write?db=mydb --data-binary cpu_load_short,host=server01,region=us-west value=0.64 1434055562000000000 Wait for 5 mins (or the config time), for NIFI to send the mail ( can be verified on http://localhost:9087/nifi ). Once the mail is sent, check in inbox it must be read, if AWS is setup accordingly. Log into Clari5 Bank website, open Grafana and then open AWS Mail Attachment Metrics Dashboard Check the chart for bank. You should see one email received.",
      "title": "Testing"
    },
    {
      "location": "1.0/SYNC-AGENT/#creating-deploying-collector-to-each-machine",
      "text": "Following steps are to be run on each machine where EFM/CC is installed Download mailer-stack-collector.tar.gz Untar mailer-stack-catcher.tar.gz Run ./install-telegraf.sh on all machines and make sure that no errors occur. Open remote-runtime/mailer-stack/host-telegraf.conf and edit the following variables Replace bank_id with corresponding tenant_id Replace collector_ip with corresponding IP where mailer-stack is installed Replace user : password @ tcp ( host : 3306 ) with its corresponding values for MYSQL server, if mysql is being used, else comment the whole block starting with [[inputs.mysql]] Replace Server=host;Port=1433;User Id=user;Password=password;app name=mssql;log=1; with its corresponding values for MSSQL server, if mssql is being used, else comment the whole block starting with [[inputs.sqlserver]] Replace interface_here with specific interface values. Replace INSTALLION_DEP_BASE with absolute path of deployment directory of EFM/CC. Start telegraf using systemctl or service command. sudo systemctl start telegraf.service OR sudo service telegraf.service start",
      "title": "Creating / Deploying Collector to each machine."
    },
    {
      "location": "1.0/SYNC-AGENT/#testing_1",
      "text": "Log into the machine where mailer-stack is deployed. To verify if all containers are up and running open Portainer in Browser (http://localhost:9020). Open Nifi (http://localhost:9087/nifi) and go to Test Mail Send Process Group, Update the following properties: In SetAttributes, update path attribute to and replace it with apm/telegraf/ . Update PutEmail similar to that mentioned above. Run all the processes in the current process group. To check if Email is being sent, read Troubleshooting of this document. Log into Clari5 Bank website, open Grafana and then open AWS Mail Attachment Metrics Dashboard. Check the chart for bank. You should see one email received.",
      "title": "Testing"
    },
    {
      "location": "1.0/SYNC-AGENT/#troubleshooting-apm",
      "text": "Follow below given steps to troubleshoot the issue related to mail not reaching Cloud. These same steps are to be followed any time mail stop getting delivered to the cloud system. Check if docker is running. Run docker ps . If it gives a list of containers that are running, then docker is running. If not running, bring up docker using systemctl or service as mentioned in deployment steps above. After starting docker wait for one minute and check if portainer, nifi, telegraf is running, by running docker ps. They should start on their own but if they do not start then run deploy-mailer-stack.sh Check if Portainer is running Open http://localhost:9020 , if portainer is accessible then it is running. Else follow all the steps for deployment mentioned at the start of this document. Check if nifi is running in Portainer. Open http://localhost:9020 and click on containers on the left side menu. There should be a container with name mailer-stack_nifi_1 (Use search option if the list is long) Check the status of this container, it should be running. If you do not find this container, follow all the steps for deployment mentioned at the start of this document. If status is failed, check the logs to know the reason why it failed, then mark the checkbox for the given container and click the restart button on top of screen. If state of the container goes back to failed after restart, report the issue. If status is stopped, then just restart as mentioned above. Check if telegraf is running in Portainer. Open http://localhost:9020 _and click on containers on left side menu ._ There should be three containers with name mailer-stack_telegraf_1, mailer-stack_telegraf-slow-freq_1, mailer-stack_telegraf-high-freq_1 (Use search option if the list is long). If any of them not running, and the status is failed, click on logs button, make sure to know the reason or which container failed, then mark the checkbox for the given container and click the restart button on top of screen. If the state of the container goes back to failed after restart, report the issue. If any of their status is stopped, then just restart as mentioned above. Check if nifi is able to send mails Open http://localhost:9070 and open SendMail process group. Check if there are any errors in PutMail or any other process. To check if there is an error for any of the process, a small red box pops up in upper right corner of the process box. If there is a red box, then hover over the red box and a pop up will show the details of errors occurred. (Refer screenshot) Following are possible errors that might occur. Email Credentials incorrect. Solution : Stop the PutEmail process, and right click, then configure, update the credentials, start the PutEmail process. Could not establish connection. Solution: Stop the PutEmail process, and right click, then configure, correct the host/port details as they are incorrect, and start the process. OR SMTP server is down and mails are not being sent. When mails are not sent, files that were not sent are moved to telegraf-error-dir _in the installation directory of mailer-stack. After Nifi is working back again, move files from this directory back to _telegraf-dir .",
      "title": "Troubleshooting APM"
    },
    {
      "location": "1.0/SYNC-AGENT/#cloud-setup-for-cloud-support-team",
      "text": "",
      "title": "Cloud Setup (For Cloud Support Team)"
    },
    {
      "location": "1.0/SYNC-AGENT/#uac-changes",
      "text": "Creation of tenent in AWS UAC. URL - https://clari5bank.clari5.com/app/ Go to UAC logging into SUPERUSER user. Go to Tenant Screen, add tenant, using a name. Make sure that corresponding DN ( bank.clari5.com) is registered. Log into AWS to create nginx config for new tenant. Copy a tenant nginx config at ~/clari5_home/runtime/conf/ existing_tenant .nginx.template.conf with a new name as tenant_id .nginx.template.conf Replace all in the new config. set $tenant_id existing_tenant with set $tenant_id tenant_id server_name superset existing_tenant $BASE_DN with server_name superset tenant_id $BASE_DN server_name apm existing_tenant $BASE_DN; with server_name apm tenant_id $BASE_DN; server_name existing_tenant $BASE_DN; with server_name tenant_id $BASE_DN; ADD following line in clari5web.dockerFile COPY tenant_id .nginx.template.conf /tmp/ RUN envsubst $BASE_DN,$BASE_PORT /tmp/ tenant_id .nginx.template.conf /etc/nginx/conf.d/ tenant_id .nginx.conf Go the ~/clari5_home/runtime/ dir. Run the following command. docker-compose -f build.base-compose.yml build Run the following command to update the nginx to accept request coming from new tenant docker service update --force runtime-stack_clari5web Check the UI using https:// tenant_id bank.clari5.com/app . Create a new Role APM Role to access Grafana, add READ capability access to grafana-dashboards capability, log into AWS using ROLEMAKER. Authorize the role, log into AWS using ROLEAUTHORIZER. Create users named GRAFANA , APM_USER , and assign them APM Role . Authorize the users, log into AWS using USERAUTHORIZER.",
      "title": "UAC Changes"
    },
    {
      "location": "1.0/SYNC-AGENT/#influx-changes",
      "text": "Log into AWS. Create Database in Influx DB in AWS using following curl command. curl -i -XPOST http://localhost:8886/query --data-urlencode q=CREATE DATABASE tenant_id Test using following curl -i -XPOST http://localhost:8886/write?db= tenant_id --data-binary cpu_load_short,host=server01,region=us-west value=0.64 1434055562000000000",
      "title": "Influx Changes"
    },
    {
      "location": "1.0/SYNC-AGENT/#grafana-changes",
      "text": "Log into AWS using Superuser of Clari5Bank. Go to APM Dashboards. In Settings right hand panel - Admin Settings Create new Organization. Switch to that Organization. Create Influx Datasource for influx and set following values. name: InfluxDB URL: http://172.17.0.1:8886 DATABASE: Leave username, password and other fields as default or blank. Left side panel Plus Sign - Import - Paste json and paste the json from ./runtime/extra/grafana_dashboards . Log into all the users for given tenant, and make sure to change the organization for each user in Grafana. Open Grafana using newly created tenant and log into SUPERUSER3, SUPERUSER, GRAFANA, APM_USER. Open Grafana using Clari5 tenant and log into SUPERUSER, navigate to Server Admin setting and now these users would already created. Give Read access in Grafana to -GRAFANA, -APM_USER in above created org, Editor access to -SUPERUSER3, Admin access to -SUPERUSER3.",
      "title": "Grafana Changes"
    },
    {
      "location": "1.0/SYNC-AGENT/#nifi-changes",
      "text": "Log into AWS using Superuser of Clari5Bank. Open Data Integration in menu. Go to SaveToInflux process group. Copy a processor with name Get old_tenant_id out files , paste it, and edit newly created properties with name Get tenant_id out files",
      "title": "Nifi Changes"
    },
    {
      "location": "1.0/SYNC-AGENT/#adding-alerting-for-new-tenant",
      "text": "Log into AWS using Superuser of Clari5Bank and open APM Dashboards Go to AWS Mail Attachment Metrics dashboard , duplicate any one of the existing chart. There is option for it using More..., when you click on existing chart. Change the name of the chart and where clause in Query to draw Karnataka charts. Alerting is not duplicated by default. Open existing tenant chart in one tab and new tenant chart in new tab. Copy the alerting config manually. Add required channels to it",
      "title": "Adding Alerting for new tenant"
    }
  ]
}